name,command,service_area,param_file,results_file,__raw__,weather_source,weather_file,write_possible_outputs,force_download,start_date,end_date,run,check_level,more_variables,packages,timeseries,registered_inputs,param_bounds_file,obs_file,obs_timestep,obs_var,iuwm_var,n_runs
fc_storm_combfi_cost,run,files/fc_storm_combfi_cost.csv,,, --output monthly.csv monthly t --output yearly.csv yearly t,file,files/weather_fort_collins.csv,../iuwm/data/possible_outputs.txt,TRUE,1/1/2012,12/31/2012,TRUE,1,"stormwater.storage,stormwater.capacity,cost.storm_for_combfi_use",,,,,,,,,
sao_paolo_sens_ab,sensitivity,files/sao_paolo_model.csv,,, --output monthly_by_geoid.csv monthly t --output yearly_by_geoid.csv yearly t --output yearly.csv yearly f --output monthly.csv monthly f --output daily.csv daily f --output annual_average_by_geoid.csv annual_average t,file,files/sao_paolo_weather.csv,../iuwm/data/possible_outputs.txt,FALSE,1/1/2013,2/28/2014,TRUE,1,outdoor.washing.total_use outdoor.washing.demand,files/custom_outdoor.py,,id name area non_constructed_area,files/sao_paolo_param_bounds_ab.csv,files/sao_paolo_obs.csv,monthly,res_total,demand,5
sao_paolo_sens_gray,sensitivity,files/sao_paolo_model.csv,,, --output monthly_by_geoid.csv monthly t --output yearly_by_geoid.csv yearly t --output yearly.csv yearly f --output monthly.csv monthly f --output daily.csv daily f --output annual_average_by_geoid.csv annual_average t,file,files/sao_paolo_weather.csv,../iuwm/data/possible_outputs.txt,FALSE,2/1/2016,6/30/2017,TRUE,1,outdoor.washing.total_use outdoor.washing.demand,files/custom_outdoor.py,,id name area non_constructed_area,files/sao_paolo_param_bounds_gray.csv,files/sao_paolo_obs.csv,monthly,res_total,demand,5
sao_paolo_calib_ab,calibrate,,,output/sao_paolo_sens_ab/results_monthly_by_geoid.csv,,,,,,,,TRUE,,,,,,,,,,,
sao_paolo_calib_gray,calibrate,,,output/sao_paolo_sens_gray/results_monthly_by_geoid.csv,,,,,,,,TRUE,,,,,,,,,,,
batch_maca,batch,files/default_dw_modeled_area.v3.1.3.csv,files/medium_run_test.csv,, --output monthly.csv monthly true --output yearly.csv yearly true,maca,,../iuwm/data/possible_outputs.txt,FALSE,1/1/2055,12/31/2055,TRUE,1,,,,id name area,,,,,,
den_batch,batch,files/den_model.csv,files/den_scen.csv,, --output monthly_by_geoid.csv monthly t --output yearly_by_geoid.csv yearly t --output yearly.csv yearly f --output monthly.csv monthly f --output daily.csv daily f --output annual_average_by_geoid.csv annual_average t,prism,,../iuwm/data/possible_outputs.txt,FALSE,1/1/2012,12/31/2012,TRUE,1,,,,id name area,,,,,,
fc_sens_prism,sensitivity,files/fc_model.csv,,, --output monthly.csv monthly t --output yearly.csv yearly t,prism,,../iuwm/data/possible_outputs.txt,FALSE,1/1/2012,12/31/2012,TRUE,1,,,,,files/fc_param_bounds.csv,files/fc_obs.csv,monthly,total_outdoor,outdoor.demand,10
fc_sens,sensitivity,files/fc_model.csv,,, --output monthly.csv monthly t --output yearly.csv yearly t,file,files/weather_fort_collins.csv,../iuwm/data/possible_outputs.txt,FALSE,1/1/2012,12/31/2012,TRUE,1,,,,,files/fc_param_bounds.csv,files/fc_obs.csv,monthly,total_outdoor,outdoor.demand,10
co_irr_depth_avg_annual,run,files/co_irr_depth_avg_annual.csv,,, --output monthly.csv monthly t --output yearly.csv yearly t,file,files/weather_fort_collins.csv,../iuwm/data/possible_outputs.txt,FALSE,1/1/2012,12/31/2013,TRUE,1,inputs.irr_area.__average__ inputs.irr_depth.__average__ outdoor.irrigation.inches.__average__,,,,,,,,,
co_irr_depth_annual,run,files/co_irr_depth_annual.csv,,, --output monthly.csv monthly t --output yearly.csv yearly t,file,files/weather_fort_collins.csv,../iuwm/data/possible_outputs.txt,FALSE,1/1/2012,12/31/2012,TRUE,1,inputs.irr_area.__average__ inputs.irr_depth.__average__ outdoor.irrigation.inches.__average__,,,,,,,,,
co_irr_depth_monthly_lag,run,files/co_irr_depth_monthly_lag.csv,,, --output monthly.csv monthly t --output yearly.csv yearly t,file,files/weather_fort_collins.csv,../iuwm/data/possible_outputs.txt,FALSE,1/1/2012,12/31/2012,TRUE,1,inputs.irr_area.__average__ inputs.irr_depth.__average__ outdoor.irrigation.inches.__average__,,,,,,,,,
co_irr_depth_monthly,run,files/co_irr_depth_monthly.csv,,, --output monthly.csv monthly t --output yearly.csv yearly t,file,files/weather_fort_collins.csv,../iuwm/data/possible_outputs.txt,FALSE,1/1/2012,12/31/2012,TRUE,1,inputs.irr_area.__average__ inputs.irr_depth.__average__ outdoor.irrigation.inches.__average__,,,,,,,,,
co_irr_depth,run,files/co_irr_depth.csv,,, --output monthly.csv monthly t --output yearly.csv yearly t,file,files/weather_fort_collins.csv,../iuwm/data/possible_outputs.txt,FALSE,1/1/2012,12/31/2012,TRUE,1,inputs.irr_area.__average__ inputs.irr_depth.__average__ outdoor.irrigation.inches.__average__,,,,,,,,,
co_irr_depth_mm,run,files/co_irr_depth_mm.csv,,, --output monthly.csv monthly t --output yearly.csv yearly t,file,files/weather_fort_collins.csv,../iuwm/data/possible_outputs.txt,FALSE,1/1/2012,12/31/2012,TRUE,1,inputs.irr_area.__average__ inputs.irr_depth.__average__ outdoor.irrigation.inches.__average__,,,,,,,,,
version_upgrade,run,files/version.v2.0.0.csv,,, --output monthly.csv monthly t --output yearly.csv yearly t,file,files/weather_fort_collins.csv,../iuwm/data/possible_outputs.txt,FALSE,1/1/2012,12/31/2012,TRUE,1,,,,id name area apcp dswrf tmpavg tmpmax tmpmin,,,,,,
co_irr_area_ts,run,files/co_irr_area.csv,,, --output monthly.csv monthly t --output yearly.csv yearly t,file,files/weather_fort_collins.csv,../iuwm/data/possible_outputs.txt,FALSE,1/1/2012,12/31/2012,TRUE,1,inputs.irr_area.__average__,,files/irr_ts.csv t,,,,,,,
nwc,run,files/nwc.csv,,, --output monthly.csv monthly t --output yearly.csv yearly t,prism,,../iuwm/data/possible_outputs.txt,TRUE,1/1/2012,12/31/2012,TRUE,1,cii.venue.attendees.total_use cii.venue.attendees.demand cii.venue.attendees.men.demand cii.venue.attendees.women.demand cii.venue.attendees.faucet.demand inputs.attendees cii.venue.attendees.total_use.__min__ cii.venue.attendees.total_use.__max__,package/venue,files/nwc_ts.csv,name irr_area_sf parking_drives_sf bldg_sf shape_area_sf remaining_pervious_area_sf corrected_irr_area_sf,,,,,,
co_irr_area,run,files/co_irr_area.csv,,, --output monthly.csv monthly t --output yearly.csv yearly t,file,files/weather_fort_collins.csv,../iuwm/data/possible_outputs.txt,FALSE,1/1/2012,12/31/2012,TRUE,1,,,,,,,,,,
co_pop_changes,run,files/co.csv,,, --output monthly.csv monthly t --output yearly.csv yearly t,file,files/weather_fort_collins.csv,../iuwm/data/possible_outputs.txt,FALSE,1/1/2012,12/31/2012,TRUE,1,inputs.population,,files/co_pop_changes.csv,,,,,,,
custom_gray_extra,run,files/co_gray_reuse_extra.csv,,, --output monthly.csv monthly t --output yearly.csv yearly t,file,files/weather_fort_collins.csv,../iuwm/data/possible_outputs.txt,FALSE,1/1/2012,12/31/2012,TRUE,1,,files/co_gray_reuse_in_toilet_custom,,,,,,,,
custom_gray_toilet,run,files/co_gray_reuse_in_toilet.csv,,, --output monthly.csv monthly t --output yearly.csv yearly t,file,files/weather_fort_collins.csv,../iuwm/data/possible_outputs.txt,FALSE,1/1/2012,12/31/2012,TRUE,1,,files/co_gray_reuse_in_toilet_custom.on_graywater_calculated,,,,,,,,
custom_subscribe,run,files/co_gray_reuse_in_toilet.csv,,, --output monthly.csv monthly t --output yearly.csv yearly t,file,files/weather_fort_collins.csv,../iuwm/data/possible_outputs.txt,FALSE,1/1/2012,12/31/2012,TRUE,1,,files/co_gray_reuse_in_toilet_custom,,,,,,,,
co_cii,run,files/co_cii.csv,,, --output monthly.csv monthly t --output yearly.csv yearly t,file,files/weather_fort_collins.csv,../iuwm/data/possible_outputs.txt,FALSE,1/1/2012,12/31/2012,TRUE,1,,,,,,,,,,
colorado_toilet_upgrade,run,files/co_toilet.csv,,, --output monthly.csv monthly t --output yearly.csv yearly t,file,files/weather_fort_collins.csv,../iuwm/data/possible_outputs.txt,FALSE,1/1/2012,12/31/2012,TRUE,1,,,,,,,,,,
med_density,run,files/med.csv,,, --output monthly.csv monthly t --output yearly.csv yearly t,file,files/weather_fort_collins.csv,../iuwm/data/possible_outputs.txt,FALSE,1/1/2012,12/31/2012,TRUE,1,,,,,,,,,,
colorado_file,run,files/co.csv,,, --output monthly.csv monthly t --output yearly.csv yearly t,file,files/weather_fort_collins.csv,../iuwm/data/possible_outputs.txt,FALSE,1/1/2012,12/31/2012,TRUE,1,,,,,,,,,,
colorado_file_no_solar,run,files/co.csv,,, --output monthly.csv monthly t --output yearly.csv yearly t,file,files/weather_fort_collins_no_solar.csv,../iuwm/data/possible_outputs.txt,FALSE,1/1/2012,12/31/2012,TRUE,1,,,,,,,,,,
colorado_file_one,run,files/co1.csv,,, --output monthly.csv monthly t --output yearly.csv yearly t,file,files/weather_fort_collins.csv,../iuwm/data/possible_outputs.txt,FALSE,1/1/2012,12/31/2012,TRUE,1,,,,,,,,,,
colorado_baseline,run,files/co_baseline.csv,,, --output monthly.csv monthly t --output yearly.csv yearly t,file,files/weather_fort_collins.csv,../iuwm/data/possible_outputs.txt,FALSE,1/1/2012,12/31/2012,TRUE,1,,,,,,,,,,
colorado_reu1999,run,files/co_reu1999.csv,,, --output monthly.csv monthly t --output yearly.csv yearly t,file,files/weather_fort_collins.csv,../iuwm/data/possible_outputs.txt,FALSE,1/1/2012,12/31/2012,TRUE,1,,,,,,,,,,
colorado_he,run,files/co_he.csv,,, --output monthly.csv monthly t --output yearly.csv yearly t,file,files/weather_fort_collins.csv,../iuwm/data/possible_outputs.txt,FALSE,1/1/2012,12/31/2012,TRUE,1,,,,,,,,,,
colorado_gray_reuse_in_toilet,run,files/co_gray_reuse_in_toilet.csv,,, --output monthly.csv monthly t --output yearly.csv yearly t,file,files/weather_fort_collins.csv,../iuwm/data/possible_outputs.txt,FALSE,1/1/2012,12/31/2012,TRUE,1,,,,,,,,,,
colorado_gray_reuse_no_mix,run,files/co_gray_reuse_no_mix.csv,,, --output monthly.csv monthly t --output yearly.csv yearly t,file,files/weather_fort_collins.csv,../iuwm/data/possible_outputs.txt,FALSE,1/1/2012,12/31/2012,TRUE,1,,,,,,,,,,
colorado_prism,run,files/co.csv,,, --output monthly.csv monthly t --output yearly.csv yearly t,prism,,../iuwm/data/possible_outputs.txt,TRUE,1/1/2012,12/31/2012,TRUE,1,,,,,,,,,,
dfd,run,files/dfd.csv,,, --output monthly.csv monthly t --output yearly.csv yearly t,narr,,../iuwm/data/possible_outputs.txt,TRUE,1/1/2012,12/31/2012,TRUE,1,,,,,,,,,,
fc_storm,run,files/fc_storm.csv,,, --output monthly.csv monthly t --output yearly.csv yearly t,file,files/weather_fort_collins.csv,../iuwm/data/possible_outputs.txt,TRUE,1/1/2012,12/31/2012,TRUE,1,"stormwater.storage,stormwater.capacity",,,,,,,,,
fc_storm_combfi,run,files/fc_storm_combfi.csv,,, --output monthly.csv monthly t --output yearly.csv yearly t,file,files/weather_fort_collins.csv,../iuwm/data/possible_outputs.txt,TRUE,1/1/2012,12/31/2012,TRUE,1,"stormwater.storage,stormwater.capacity",,,,,,,,,
colorado_specify_profile,run,files/co_specify_profile.csv,,, --output monthly.csv monthly t --output yearly.csv yearly t,file,files/weather_fort_collins.csv,../iuwm/data/possible_outputs.txt,FALSE,1/1/2012,12/31/2012,TRUE,1,,,,,,,,,,
colorado_specify_profile_2,run,files/co_specify_profile_2.csv,,, --output monthly.csv monthly t --output yearly.csv yearly t,file,files/weather_fort_collins.csv,../iuwm/data/possible_outputs.txt,FALSE,1/1/2012,12/31/2012,TRUE,1,,,,,,,,,,
