name,a,b,bath,clothes,dish,faucet,leak,other,shower,toilet
reu1999,87.41,0.69,0.029,0.221,0.017,0.147,0.121,0.046,0.171,0.248
reu2016,67.25,0.6541,0.026,0.165,0.012,0.191,0.124,0.038,0.204,0.24
he,59.58,0.53,0.059,0.189,0.02,0.192,0.104,0.013,0.235,0.188
