version,geoid,weather_source,longitude,latitude,percent_irr_open,percent_irr_low,percent_irr_med,percent_irr_high,area_open,area_low,area_med,area_high,shape_area,population,households,water_cost,wastewater_effluent_cost,cost_to_use_waste,percent_reu2016,percent_impervious,cii_indoor_per_household,cii_percent_consumed,cii_percent_graywater,irr_avg_temp_cutoff,percent_nir_met,percent_et_met,et_method
3.1.3,80310045063,PRISM,-105.0287742,39.70218931,40,25,10,0,0.2223945,30.690441,28.6888905,3.113523,63.06043626,1295.000001,384.0000002,2,3,4,100,36.43068969,50,10,15,14.22,100,45,2
3.1.3,80930005003,PRISM,-105.7757145,38.82205645,40,25,10,0,1122.869831,133.4367,1.779156,0,215253.4881,704.0000004,330.0000002,2,3,4,100,0.012811369,50,10,15,14.22,100,45,2
3.1.3,80410060003,PRISM,-104.7432402,38.84713698,40,25,10,0,33.359175,124.096131,91.4041395,40.475799,330.6684311,1340.000001,512.0000003,2,3,4,100,31.11937079,50,10,15,14.22,100,45,2
3.1.3,80179606002,PRISM,-102.9720789,38.8232035,40,25,10,0,12139.62618,550.203993,51.595524,4.003101,388773.1066,386.0000002,165.0000001,2,3,4,100,0.035764059,50,10,15,14.22,100,45,2
3.1.3,80590102122,PRISM,-105.0697678,39.81658045,40,25,10,0,4.2254955,67.8303225,11.3421195,0,83.35978788,845.0000005,294.0000002,2,3,4,100,23.07722313,50,10,15,14.22,100,45,2
3.1.3,80410060004,PRISM,-104.7339566,38.84671432,40,25,10,0,38.251854,121.872186,111.642039,41.5877715,318.5284467,1260.000001,520.0000003,2,3,4,100,35.6218338,50,10,15,14.22,100,45,2
3.1.3,80410060001,PRISM,-104.7526913,38.85071823,40,25,10,0,13.34367,60.491304,50.9283405,40.2534045,164.4779272,1990.000001,823.0000005,2,3,4,100,42.4161198,50,10,15,14.22,100,45,2
3.1.3,80010080005,PRISM,-104.862843,39.75149578,40,25,10,0,2.0015505,43.3669275,15.122826,0.2223945,61.00096495,877.0000005,248.0000001,2,3,4,100,26.90566307,50,10,15,14.22,100,45,2
3.1.3,80410051112,PRISM,-104.6811558,38.86164457,40,25,10,0,149.2267095,108.528516,217.94661,23.573817,809.8836903,5023.000003,1675.000001,2,3,4,100,18.46414042,50,10,15,14.22,100,45,2
