version,geoid,weather_source,longitude,latitude,irr_area,irr_area_method,shape_area,population,households,water_cost,wastewater_effluent_cost,cost_to_use_waste,percent_reu2016,percent_impervious,cii_indoor_per_household,cii_percent_consumed,cii_percent_graywater,irr_avg_temp_cutoff,percent_nir_met,percent_et_met,et_method
3.1.3,80310045063,PRISM,-105.0287742,39.70218931,10.6304571,2,63.06043626,1295.000001,384.0000002,2,3,4,100,36.43068969,50,10,15,14.22,100,45,2
3.1.3,80930005003,PRISM,-105.7757145,38.82205645,482.685023,2,215253.4881,704.0000004,330.0000002,2,3,4,100,0.012811369,50,10,15,14.22,100,45,2
3.1.3,80410060003,PRISM,-104.7432402,38.84713698,53.5081167,2,330.6684311,1340.000001,512.0000003,2,3,4,100,31.11937079,50,10,15,14.22,100,45,2
3.1.3,80179606002,PRISM,-102.9720789,38.8232035,4998.561023,2,388773.1066,386.0000002,165.0000001,2,3,4,100,0.035764059,50,10,15,14.22,100,45,2
3.1.3,80590102122,PRISM,-105.0697678,39.81658045,19.78199078,2,83.35978788,845.0000005,294.0000002,2,3,4,100,23.07722313,50,10,15,14.22,100,45,2
3.1.3,80410060004,PRISM,-104.7339566,38.84671432,56.932992,2,318.5284467,1260.000001,520.0000003,2,3,4,100,35.6218338,50,10,15,14.22,100,45,2
3.1.3,80410060001,PRISM,-104.7526913,38.85071823,25.55312805,2,164.4779272,1990.000001,823.0000005,2,3,4,100,42.4161198,50,10,15,14.22,100,45,2
3.1.3,80010080005,PRISM,-104.862843,39.75149578,13.15463468,2,61.00096495,877.0000005,248.0000001,2,3,4,100,26.90566307,50,10,15,14.22,100,45,2
3.1.3,80410051112,PRISM,-104.6811558,38.86164457,108.6174738,2,809.8836903,5023.000003,1675.000001,2,3,4,100,18.46414042,50,10,15,14.22,100,45,2
