version,cell,date,temp_max (C),temp_min (C),temp_avg (C),precipitation (in)
3.1.3,Fort Collins East,1/1/2012,3.444444444,-11.27777778,-5.027777778,0
3.1.3,Fort Collins East,1/2/2012,10.5,-11.61111111,-2.966666667,0
3.1.3,Fort Collins East,1/3/2012,15.66666667,-6.5,5.288888889,0
3.1.3,Fort Collins East,1/4/2012,14.38888889,-9.944444444,0.622222222,0
3.1.3,Fort Collins East,1/5/2012,17.55555556,-5.388888889,6.45,0
3.1.3,Fort Collins East,1/6/2012,14.55555556,-8.944444444,3.305555556,0
3.1.3,Fort Collins East,1/7/2012,6.833333333,-9,-1.922222222,0
3.1.3,Fort Collins East,1/8/2012,5.166666667,-12.83333333,-5.366666667,0
3.1.3,Fort Collins East,1/9/2012,12.33333333,-10.22222222,-1.05,0
3.1.3,Fort Collins East,1/10/2012,15.83333333,-8.388888889,3.283333333,0
3.1.3,Fort Collins East,1/11/2012,5.166666667,-13.44444444,-4.811111111,0
3.1.3,Fort Collins East,1/12/2012,8.333333333,-15.77777778,-1.916666667,0
3.1.3,Fort Collins East,1/13/2012,11.83333333,-6.666666667,3.233333333,0
3.1.3,Fort Collins East,1/14/2012,15.11111111,-9.833333333,2.216666667,0
3.1.3,Fort Collins East,1/15/2012,10.88888889,-5.111111111,2.133333333,0
3.1.3,Fort Collins East,1/16/2012,4.833333333,-9.777777778,-3.505555556,0.031496063
3.1.3,Fort Collins East,1/17/2012,0.333333333,-17.83333333,-7.516666667,0
3.1.3,Fort Collins East,1/18/2012,9.666666667,-11,3.85,0
3.1.3,Fort Collins East,1/19/2012,17.11111111,2.888888889,10.73333333,0
3.1.3,Fort Collins East,1/20/2012,13.72222222,-6.388888889,7.711111111,0
3.1.3,Fort Collins East,1/21/2012,15,-7.833333333,2.094444444,0
3.1.3,Fort Collins East,1/22/2012,9.277777778,-6.722222222,3.633333333,0
3.1.3,Fort Collins East,1/23/2012,7.333333333,-10.5,-2.722222222,0
3.1.3,Fort Collins East,1/24/2012,5.5,-11.55555556,-0.788888889,0
3.1.3,Fort Collins East,1/25/2012,19.33333333,-12.27777778,2.977777778,0
3.1.3,Fort Collins East,1/26/2012,11.33333333,-8.166666667,3.788888889,0
3.1.3,Fort Collins East,1/27/2012,8.444444444,-9.333333333,-1.038888889,0.019685039
3.1.3,Fort Collins East,1/28/2012,6.055555556,-13.83333333,-4.177777778,0
3.1.3,Fort Collins East,1/29/2012,16.83333333,-7.333333333,4.216666667,0
3.1.3,Fort Collins East,1/30/2012,14.61111111,-6.444444444,5.405555556,0
3.1.3,Fort Collins East,1/31/2012,9.388888889,-5.222222222,2.261111111,0
3.1.3,Fort Collins East,2/1/2012,10.16666667,-9.777777778,-0.027777778,0
3.1.3,Fort Collins East,2/2/2012,7.944444444,-4.388888889,1.011111111,0.188976378
3.1.3,Fort Collins East,2/3/2012,0.055555556,-3.055555556,-1.538888889,0.169291339
3.1.3,Fort Collins East,2/4/2012,2.444444444,-9,-3.177777778,0
3.1.3,Fort Collins East,2/5/2012,4.611111111,-11.83333333,-4.961111111,0
3.1.3,Fort Collins East,2/6/2012,4.888888889,-13.55555556,-3.944444444,0
3.1.3,Fort Collins East,2/7/2012,-2.111111111,-7.722222222,-4.816666667,0
3.1.3,Fort Collins East,2/8/2012,3.944444444,-14.33333333,-4.883333333,0
3.1.3,Fort Collins East,2/9/2012,7.111111111,-8.777777778,-1.322222222,0
3.1.3,Fort Collins East,2/10/2012,3.944444444,-10.66666667,-3.527777778,0.078740157
3.1.3,Fort Collins East,2/11/2012,-7,-16.27777778,-11.23333333,0.031496063
3.1.3,Fort Collins East,2/12/2012,-1.444444444,-17.61111111,-8.822222222,0
3.1.3,Fort Collins East,2/13/2012,8.055555556,-9.166666667,-0.016666667,0
3.1.3,Fort Collins East,2/14/2012,7.388888889,-5.722222222,0.394444444,0
3.1.3,Fort Collins East,2/15/2012,2.333333333,-6.111111111,-1.783333333,0
3.1.3,Fort Collins East,2/16/2012,7.5,-8.222222222,-1.627777778,0
3.1.3,Fort Collins East,2/17/2012,5.777777778,-9.777777778,-1.677777778,0
3.1.3,Fort Collins East,2/18/2012,6.055555556,-8.555555556,-1.972222222,0
3.1.3,Fort Collins East,2/19/2012,7.722222222,-6.333333333,0.416666667,0
3.1.3,Fort Collins East,2/20/2012,6.055555556,-2.333333333,1.344444444,0
3.1.3,Fort Collins East,2/21/2012,11.77777778,-3.333333333,4.894444444,0
3.1.3,Fort Collins East,2/22/2012,16.38888889,7.944444444,11.56666667,0
3.1.3,Fort Collins East,2/23/2012,8.833333333,-9.611111111,-1.433333333,0.070866142
3.1.3,Fort Collins East,2/24/2012,6,-9.333333333,-1.005555556,0
3.1.3,Fort Collins East,2/25/2012,17.33333333,-12.16666667,0.827777778,0
3.1.3,Fort Collins East,2/26/2012,4.444444444,-8.555555556,-1.266666667,0
3.1.3,Fort Collins East,2/27/2012,9,-12.83333333,-3.1,0
3.1.3,Fort Collins East,2/28/2012,7.166666667,-7.333333333,0.166666667,0
3.1.3,Fort Collins East,2/29/2012,13.77777778,-2.944444444,4.655555556,0
3.1.3,Fort Collins East,3/1/2012,6.777777778,-7.388888889,1.211111111,0
3.1.3,Fort Collins East,3/2/2012,2.555555556,-13.33333333,-4.516666667,0
3.1.3,Fort Collins East,3/3/2012,11,-7.444444444,2.888888889,0
3.1.3,Fort Collins East,3/4/2012,18.27777778,-4.5,7.416666667,0
3.1.3,Fort Collins East,3/5/2012,20.5,-8.388888889,6.677777778,0
3.1.3,Fort Collins East,3/6/2012,22.5,-4.611111111,11.07222222,0
3.1.3,Fort Collins East,3/7/2012,3.333333333,-6.666666667,-1.083333333,0
3.1.3,Fort Collins East,3/8/2012,10.22222222,-10.55555556,-0.783333333,0
3.1.3,Fort Collins East,3/9/2012,16.77777778,-9.777777778,3.094444444,0
3.1.3,Fort Collins East,3/10/2012,20.22222222,-8.777777778,6.833333333,0
3.1.3,Fort Collins East,3/11/2012,20.05555556,1.944444444,8.938888889,0
3.1.3,Fort Collins East,3/12/2012,20.5,0.388888889,10.12777778,0
3.1.3,Fort Collins East,3/13/2012,23.11111111,-2.944444444,10.76111111,0
3.1.3,Fort Collins East,3/14/2012,23.22222222,-2.5,12.05,0
3.1.3,Fort Collins East,3/15/2012,22,2.944444444,12.22222222,0
3.1.3,Fort Collins East,3/16/2012,24.88888889,-0.555555556,10.9,0
3.1.3,Fort Collins East,3/17/2012,24,-2.166666667,10.87222222,0
3.1.3,Fort Collins East,3/18/2012,22.16666667,-1.833333333,10.14444444,0
3.1.3,Fort Collins East,3/19/2012,11,-5.111111111,5.183333333,0
3.1.3,Fort Collins East,3/20/2012,12.77777778,-4.555555556,4.755555556,0
3.1.3,Fort Collins East,3/21/2012,19.44444444,-7.444444444,6.366666667,0
3.1.3,Fort Collins East,3/22/2012,21.94444444,-0.388888889,10.27777778,0
3.1.3,Fort Collins East,3/23/2012,24.44444444,-1.777777778,11.33888889,0
3.1.3,Fort Collins East,3/24/2012,23.66666667,2.666666667,13.71666667,0
3.1.3,Fort Collins East,3/25/2012,20.44444444,0.388888889,10.68888889,0
3.1.3,Fort Collins East,3/26/2012,27.38888889,3.222222222,12.33333333,0
3.1.3,Fort Collins East,3/27/2012,21,4.444444444,13.08888889,0
3.1.3,Fort Collins East,3/28/2012,24.11111111,-0.611111111,12.40555556,0
3.1.3,Fort Collins East,3/29/2012,22,4.777777778,14.35555556,0
3.1.3,Fort Collins East,3/30/2012,24.38888889,1.833333333,13.62777778,0
3.1.3,Fort Collins East,3/31/2012,27,4.111111111,16.31111111,0
3.1.3,Fort Collins East,4/1/2012,27.38888889,2.444444444,16.5,0
3.1.3,Fort Collins East,4/2/2012,12.61111111,2.5,6.188888889,0
3.1.3,Fort Collins East,4/3/2012,6.444444444,-1.111111111,2.733333333,0.059055118
3.1.3,Fort Collins East,4/4/2012,17.16666667,0.833333333,8.433333333,0
3.1.3,Fort Collins East,4/5/2012,22.27777778,-1.388888889,10.71111111,0
3.1.3,Fort Collins East,4/6/2012,25,3.555555556,12.33333333,0
3.1.3,Fort Collins East,4/7/2012,15.72222222,-1.722222222,7.9,0
3.1.3,Fort Collins East,4/8/2012,21.94444444,-6.111111111,9.727777778,0
3.1.3,Fort Collins East,4/9/2012,19.94444444,-3.5,9.566666667,0
3.1.3,Fort Collins East,4/10/2012,23.94444444,1.666666667,13.46666667,0
3.1.3,Fort Collins East,4/11/2012,17,9.888888889,12.04444444,0.031496063
3.1.3,Fort Collins East,4/12/2012,20.66666667,4.166666667,12.01111111,0
3.1.3,Fort Collins East,4/13/2012,17.66666667,3,10.43888889,0
3.1.3,Fort Collins East,4/14/2012,15.66666667,4.777777778,9.216666667,0
3.1.3,Fort Collins East,4/15/2012,11.38888889,3.666666667,6.472222222,0.059055118
3.1.3,Fort Collins East,4/16/2012,15.05555556,0.277777778,7.338888889,0.031496063
3.1.3,Fort Collins East,4/17/2012,19.77777778,-1.722222222,10.2,0
3.1.3,Fort Collins East,4/18/2012,20.72222222,0.833333333,10.77777778,0.011811024
3.1.3,Fort Collins East,4/19/2012,19,4.944444444,11.80555556,0.039370079
3.1.3,Fort Collins East,4/20/2012,21.66666667,-0.333333333,11.12222222,0
3.1.3,Fort Collins East,4/21/2012,22.22222222,5.5,15.87777778,0
3.1.3,Fort Collins East,4/22/2012,22.66666667,0.888888889,12.62777778,0
3.1.3,Fort Collins East,4/23/2012,28.33333333,0.944444444,15.93333333,0
3.1.3,Fort Collins East,4/24/2012,30.5,6.388888889,18.39444444,0
3.1.3,Fort Collins East,4/25/2012,28.11111111,7.722222222,18.16666667,0
3.1.3,Fort Collins East,4/26/2012,27.33333333,10.44444444,17.95,0.051181102
3.1.3,Fort Collins East,4/27/2012,18.5,4.944444444,12.06111111,0.011811024
3.1.3,Fort Collins East,4/28/2012,15.44444444,4,9.655555556,0
3.1.3,Fort Collins East,4/29/2012,18.27777778,0.166666667,9.766666667,0
3.1.3,Fort Collins East,4/30/2012,24.83333333,-0.222222222,13.82222222,0
3.1.3,Fort Collins East,5/1/2012,24.55555556,4.666666667,15.96111111,0
3.1.3,Fort Collins East,5/2/2012,23.27777778,7.611111111,15.98888889,0
3.1.3,Fort Collins East,5/3/2012,26.27777778,3.666666667,16.55,0
3.1.3,Fort Collins East,5/4/2012,29.61111111,7.555555556,19.34444444,0
3.1.3,Fort Collins East,5/5/2012,27.55555556,6.888888889,17.63888889,0
3.1.3,Fort Collins East,5/6/2012,15.88888889,5.111111111,10.17222222,0.291338583
3.1.3,Fort Collins East,5/7/2012,10.22222222,2.722222222,6.938888889,0.291338583
3.1.3,Fort Collins East,5/8/2012,18.94444444,0.444444444,10.5,0
3.1.3,Fort Collins East,5/9/2012,26.11111111,2.333333333,15.12777778,0
3.1.3,Fort Collins East,5/10/2012,29.16666667,3.5,18.02222222,0
3.1.3,Fort Collins East,5/11/2012,9.555555556,2.5,6.083333333,0.070866142
3.1.3,Fort Collins East,5/12/2012,10.27777778,2.5,5.816666667,0.011811024
3.1.3,Fort Collins East,5/13/2012,17.83333333,2.944444444,10.58888889,0
3.1.3,Fort Collins East,5/14/2012,26.16666667,1.888888889,14.92222222,0
3.1.3,Fort Collins East,5/15/2012,26.05555556,5.222222222,17.01666667,0
3.1.3,Fort Collins East,5/16/2012,28.66666667,4.555555556,16.8,0
3.1.3,Fort Collins East,5/17/2012,26.61111111,8.5,18.15555556,0
3.1.3,Fort Collins East,5/18/2012,28.77777778,7.055555556,18.47777778,0
3.1.3,Fort Collins East,5/19/2012,17.16666667,5.833333333,11.11111111,0.271653543
3.1.3,Fort Collins East,5/20/2012,22.88888889,3.611111111,13.66111111,0
3.1.3,Fort Collins East,5/21/2012,28.77777778,5.166666667,17.81666667,0
3.1.3,Fort Collins East,5/22/2012,33.11111111,7.444444444,20.77222222,0
3.1.3,Fort Collins East,5/23/2012,17.94444444,8.722222222,12.75555556,0.590551181
3.1.3,Fort Collins East,5/24/2012,18.38888889,6.722222222,12.55555556,0
3.1.3,Fort Collins East,5/25/2012,19.72222222,7.388888889,12.79444444,0
3.1.3,Fort Collins East,5/26/2012,29.38888889,11.94444444,19.84444444,0
3.1.3,Fort Collins East,5/27/2012,21.83333333,6.5,15.40555556,0
3.1.3,Fort Collins East,5/28/2012,22.22222222,7.111111111,15.38333333,0
3.1.3,Fort Collins East,5/29/2012,25,4.666666667,16.48888889,0
3.1.3,Fort Collins East,5/30/2012,28.5,7.555555556,16.64444444,0
3.1.3,Fort Collins East,5/31/2012,22.72222222,5.388888889,15.02777778,0
3.1.3,Fort Collins East,6/1/2012,26.11111111,6.833333333,17.93333333,0
3.1.3,Fort Collins East,6/2/2012,26.33333333,7.5,17.15555556,0
3.1.3,Fort Collins East,6/3/2012,30.33333333,9.055555556,20.23888889,0.011811024
3.1.3,Fort Collins East,6/4/2012,33.05555556,9.388888889,22.14444444,0
3.1.3,Fort Collins East,6/5/2012,30.5,11.33333333,22.38888889,0
3.1.3,Fort Collins East,6/6/2012,30.27777778,12.72222222,21.50555556,0
3.1.3,Fort Collins East,6/7/2012,27.94444444,13,19.26111111,0.019685039
3.1.3,Fort Collins East,6/8/2012,30.5,11.44444444,21.63333333,0
3.1.3,Fort Collins East,6/9/2012,33.55555556,10.83333333,23.91111111,0
3.1.3,Fort Collins East,6/10/2012,26.55555556,11.94444444,18.66666667,0
3.1.3,Fort Collins East,6/11/2012,24.16666667,9.555555556,17.15,0
3.1.3,Fort Collins East,6/12/2012,26.77777778,6.444444444,18.08333333,0
3.1.3,Fort Collins East,6/13/2012,32.05555556,8.444444444,19.91111111,0
3.1.3,Fort Collins East,6/14/2012,29.22222222,11.16666667,20.6,0
3.1.3,Fort Collins East,6/15/2012,30.22222222,14.11111111,21.63333333,0
3.1.3,Fort Collins East,6/16/2012,25.83333333,11.66666667,19.03333333,0
3.1.3,Fort Collins East,6/17/2012,34,8.222222222,23.76111111,0
3.1.3,Fort Collins East,6/18/2012,37,10.55555556,24.85,0
3.1.3,Fort Collins East,6/19/2012,33.5,10.5,24.73333333,0
3.1.3,Fort Collins East,6/20/2012,23.83333333,12.88888889,17.83333333,0
3.1.3,Fort Collins East,6/21/2012,29.05555556,12.72222222,21.6,0
3.1.3,Fort Collins East,6/22/2012,35.72222222,9.277777778,23.12222222,0
3.1.3,Fort Collins East,6/23/2012,37.38888889,11.05555556,26.38333333,0
3.1.3,Fort Collins East,6/24/2012,37.77777778,14.61111111,26.41111111,0.220472441
3.1.3,Fort Collins East,6/25/2012,38.44444444,14.55555556,26.43888889,0
3.1.3,Fort Collins East,6/26/2012,37.5,15.66666667,27.43333333,0
3.1.3,Fort Collins East,6/27/2012,34.33333333,14.61111111,23.72777778,0.039370079
3.1.3,Fort Collins East,6/28/2012,33.55555556,13.38888889,22.61666667,0.11023622
3.1.3,Fort Collins East,6/29/2012,35.22222222,12.22222222,24.24444444,0.059055118
3.1.3,Fort Collins East,6/30/2012,35.05555556,13.22222222,24.56666667,0
3.1.3,Fort Collins East,7/1/2012,36,13.22222222,24.86111111,0
3.1.3,Fort Collins East,7/2/2012,34.16666667,14.27777778,23.88888889,0
3.1.3,Fort Collins East,7/3/2012,33.66666667,14.16666667,24.13333333,0
3.1.3,Fort Collins East,7/4/2012,33.5,13.66666667,25.10555556,0
3.1.3,Fort Collins East,7/5/2012,33.11111111,19.55555556,24.16666667,0.11023622
3.1.3,Fort Collins East,7/6/2012,29.38888889,15.72222222,20.31111111,0.649606299
3.1.3,Fort Collins East,7/7/2012,26.16666667,14.77777778,19.43888889,1.559055118
3.1.3,Fort Collins East,7/8/2012,23.83333333,15.94444444,19.56111111,0.078740157
3.1.3,Fort Collins East,7/9/2012,26.11111111,16.44444444,20.85,0
3.1.3,Fort Collins East,7/10/2012,27.11111111,14.22222222,21.01666667,0
3.1.3,Fort Collins East,7/11/2012,30.5,12.05555556,22.10555556,0
3.1.3,Fort Collins East,7/12/2012,31.72222222,13.16666667,23.32222222,0
3.1.3,Fort Collins East,7/13/2012,32.88888889,13.5,23.37222222,0
3.1.3,Fort Collins East,7/14/2012,33.05555556,12.94444444,23.40555556,0
3.1.3,Fort Collins East,7/15/2012,33.16666667,13.5,23.65555556,0
3.1.3,Fort Collins East,7/16/2012,33.66666667,13.16666667,23.27222222,0.019685039
3.1.3,Fort Collins East,7/17/2012,32.05555556,14.5,23.96666667,0
3.1.3,Fort Collins East,7/18/2012,35.38888889,14.11111111,25.28888889,0
3.1.3,Fort Collins East,7/19/2012,35.77777778,13.44444444,24.57777778,0
3.1.3,Fort Collins East,7/20/2012,37.38888889,13.16666667,25.51111111,0
3.1.3,Fort Collins East,7/21/2012,36.16666667,15.16666667,26.09444444,0
3.1.3,Fort Collins East,7/22/2012,35.44444444,16.22222222,25.4,0
3.1.3,Fort Collins East,7/23/2012,35.5,15.16666667,26.71111111,0
3.1.3,Fort Collins East,7/24/2012,34.55555556,15,25.21666667,0.149606299
3.1.3,Fort Collins East,7/25/2012,30.72222222,13.44444444,21.64444444,0.448818898
3.1.3,Fort Collins East,7/26/2012,31.72222222,12.38888889,21.7,0
3.1.3,Fort Collins East,7/27/2012,32.72222222,11.83333333,22.60555556,0
3.1.3,Fort Collins East,7/28/2012,31.77777778,13.72222222,23.34444444,0
3.1.3,Fort Collins East,7/29/2012,32.44444444,14.33333333,21.66666667,0.031496063
3.1.3,Fort Collins East,7/30/2012,30.33333333,13.94444444,20.48333333,0.031496063
3.1.3,Fort Collins East,7/31/2012,34.11111111,12.83333333,23.54444444,0.039370079
3.1.3,Fort Collins East,8/1/2012,31.33333333,14.88888889,22.36111111,0.039370079
3.1.3,Fort Collins East,8/2/2012,31.38888889,14.55555556,22.5,0.039370079
3.1.3,Fort Collins East,8/3/2012,32.72222222,10.16666667,22.58888889,0
3.1.3,Fort Collins East,8/4/2012,25.27777778,12.66666667,18.97777778,0
3.1.3,Fort Collins East,8/5/2012,32.5,8.833333333,20.37222222,0
3.1.3,Fort Collins East,8/6/2012,34.5,13.88888889,23.81666667,0
3.1.3,Fort Collins East,8/7/2012,32.44444444,12.94444444,22.57777778,0
3.1.3,Fort Collins East,8/8/2012,34.27777778,11.77777778,23.38888889,0
3.1.3,Fort Collins East,8/9/2012,30.33333333,11.38888889,21.56666667,0
3.1.3,Fort Collins East,8/10/2012,30.22222222,14,23.2,0
3.1.3,Fort Collins East,8/11/2012,29.83333333,14.27777778,21.22222222,0
3.1.3,Fort Collins East,8/12/2012,28.77777778,8.888888889,19.91111111,0
3.1.3,Fort Collins East,8/13/2012,25.83333333,8.777777778,17.62222222,0
3.1.3,Fort Collins East,8/14/2012,31.77777778,10.05555556,19.95,0
3.1.3,Fort Collins East,8/15/2012,33.11111111,10.44444444,20.61111111,0
3.1.3,Fort Collins East,8/16/2012,21,9.5,15.84444444,0
3.1.3,Fort Collins East,8/17/2012,26.66666667,6.111111111,16.88888889,0
3.1.3,Fort Collins East,8/18/2012,27.05555556,8.722222222,19.37222222,0
3.1.3,Fort Collins East,8/19/2012,26.66666667,5.611111111,16.99444444,0
3.1.3,Fort Collins East,8/20/2012,26.66666667,8,17.06666667,0
3.1.3,Fort Collins East,8/21/2012,30.27777778,9.666666667,20.12222222,0
3.1.3,Fort Collins East,8/22/2012,31.22222222,10.72222222,22.03888889,0
3.1.3,Fort Collins East,8/23/2012,29.55555556,12.55555556,21.28333333,0
3.1.3,Fort Collins East,8/24/2012,33.66666667,10.22222222,20.91666667,0
3.1.3,Fort Collins East,8/25/2012,25.94444444,11.66666667,19.71111111,0
3.1.3,Fort Collins East,8/26/2012,35.11111111,8.277777778,21.92222222,0
3.1.3,Fort Collins East,8/27/2012,34.5,9.722222222,21.86111111,0
3.1.3,Fort Collins East,8/28/2012,34.83333333,12.88888889,22.72777778,0
3.1.3,Fort Collins East,8/29/2012,35.61111111,11.55555556,24.18888889,0
3.1.3,Fort Collins East,8/30/2012,31.77777778,16.27777778,23.06111111,0
3.1.3,Fort Collins East,8/31/2012,33.66666667,12.33333333,22.93333333,0
3.1.3,Fort Collins East,9/1/2012,32.66666667,9.833333333,21.74444444,0
3.1.3,Fort Collins East,9/2/2012,32.05555556,16.66666667,24,0
3.1.3,Fort Collins East,9/3/2012,31,10.77777778,20.58888889,0
3.1.3,Fort Collins East,9/4/2012,33.38888889,8.444444444,21.07222222,0
3.1.3,Fort Collins East,9/5/2012,28.5,6.333333333,17.51111111,0
3.1.3,Fort Collins East,9/6/2012,30.83333333,4.944444444,20.1,0
3.1.3,Fort Collins East,9/7/2012,22.22222222,7.444444444,15.06111111,0.019685039
3.1.3,Fort Collins East,9/8/2012,26.61111111,5.777777778,15.47777778,0
3.1.3,Fort Collins East,9/9/2012,29.55555556,4.888888889,17.06111111,0
3.1.3,Fort Collins East,9/10/2012,32.27777778,8.166666667,19.50555556,0
3.1.3,Fort Collins East,9/11/2012,28.83333333,10.16666667,19.27222222,0.090551181
3.1.3,Fort Collins East,9/12/2012,15.27777778,9.444444444,11.86111111,0.409448819
3.1.3,Fort Collins East,9/13/2012,21.83333333,7.055555556,13.63333333,0
3.1.3,Fort Collins East,9/14/2012,25,5.722222222,14.2,0
3.1.3,Fort Collins East,9/15/2012,30.66666667,3.055555556,15.54444444,0
3.1.3,Fort Collins East,9/16/2012,30.22222222,6.111111111,19.16111111,0
3.1.3,Fort Collins East,9/17/2012,18.77777778,5.055555556,12.45,0
3.1.3,Fort Collins East,9/18/2012,26,3.055555556,14.08888889,0
3.1.3,Fort Collins East,9/19/2012,27,5.222222222,16.37222222,0
3.1.3,Fort Collins East,9/20/2012,28.44444444,3.166666667,15.43888889,0
3.1.3,Fort Collins East,9/21/2012,26.05555556,5.722222222,15.26111111,0
3.1.3,Fort Collins East,9/22/2012,24.16666667,3.5,13.32777778,0
3.1.3,Fort Collins East,9/23/2012,27.88888889,3.611111111,15.9,0
3.1.3,Fort Collins East,9/24/2012,27.22222222,11.44444444,19.13888889,0.051181102
3.1.3,Fort Collins East,9/25/2012,22.38888889,7.444444444,14.28888889,0.519685039
3.1.3,Fort Collins East,9/26/2012,19.11111111,10.38888889,12.95555556,0.429133858
3.1.3,Fort Collins East,9/27/2012,19.27777778,9.055555556,12.71111111,0.011811024
3.1.3,Fort Collins East,9/28/2012,21.11111111,5.555555556,12.31666667,0
3.1.3,Fort Collins East,9/29/2012,24.88888889,4.944444444,14.08888889,0
3.1.3,Fort Collins East,9/30/2012,25.44444444,8.944444444,16.65,0
3.1.3,Fort Collins East,10/1/2012,21.83333333,5.166666667,14.52222222,0
3.1.3,Fort Collins East,10/2/2012,27.88888889,3.333333333,14.57222222,0
3.1.3,Fort Collins East,10/3/2012,28,3.722222222,12.98333333,0
3.1.3,Fort Collins East,10/4/2012,6.166666667,0.388888889,3.205555556,0
3.1.3,Fort Collins East,10/5/2012,4.111111111,-0.111111111,1.716666667,0
3.1.3,Fort Collins East,10/6/2012,5.944444444,-1.166666667,1.388888889,0.011811024
3.1.3,Fort Collins East,10/7/2012,13.66666667,-7.5,2.8,0
3.1.3,Fort Collins East,10/8/2012,22.27777778,-5.055555556,7.983333333,0
3.1.3,Fort Collins East,10/9/2012,8.444444444,-1.944444444,5.127777778,0
3.1.3,Fort Collins East,10/10/2012,15.83333333,-3.777777778,5.272222222,0
3.1.3,Fort Collins East,10/11/2012,16.27777778,2.111111111,9.016666667,0
3.1.3,Fort Collins East,10/12/2012,12.72222222,-0.055555556,6.661111111,0.059055118
3.1.3,Fort Collins East,10/13/2012,16.72222222,6.444444444,11.26111111,0.11023622
3.1.3,Fort Collins East,10/14/2012,20.77777778,2.944444444,11.21111111,0
3.1.3,Fort Collins East,10/15/2012,24.61111111,0.388888889,12.6,0
3.1.3,Fort Collins East,10/16/2012,23.88888889,2.888888889,14.07222222,0
3.1.3,Fort Collins East,10/17/2012,14.27777778,2.166666667,10.26111111,0
3.1.3,Fort Collins East,10/18/2012,19.11111111,-5.944444444,7.088888889,0
3.1.3,Fort Collins East,10/19/2012,22.05555556,-4.222222222,8.911111111,0
3.1.3,Fort Collins East,10/20/2012,23.5,1.666666667,10.91666667,0
3.1.3,Fort Collins East,10/21/2012,20.44444444,2,11.03333333,0
3.1.3,Fort Collins East,10/22/2012,17.61111111,-1.611111111,7.35,0
3.1.3,Fort Collins East,10/23/2012,25.44444444,0.888888889,11.63333333,0
3.1.3,Fort Collins East,10/24/2012,9.5,-0.5,4.905555556,0.161417323
3.1.3,Fort Collins East,10/25/2012,3.944444444,-3,-0.166666667,0.11023622
3.1.3,Fort Collins East,10/26/2012,3,-11,-2.394444444,0.200787402
3.1.3,Fort Collins East,10/27/2012,11.61111111,-2.5,2.233333333,0
3.1.3,Fort Collins East,10/28/2012,14.83333333,-2.5,4.761111111,0
3.1.3,Fort Collins East,10/29/2012,17.66666667,0.611111111,8.3,0
3.1.3,Fort Collins East,10/30/2012,21.22222222,2.388888889,10.78888889,0
3.1.3,Fort Collins East,10/31/2012,21.16666667,-0.5,9.705555556,0
3.1.3,Fort Collins East,11/1/2012,15.88888889,0.777777778,7.716666667,0
3.1.3,Fort Collins East,11/2/2012,18.94444444,-0.388888889,9.8,0
3.1.3,Fort Collins East,11/3/2012,15,-2.944444444,4.644444444,0
3.1.3,Fort Collins East,11/4/2012,17.83333333,-2.333333333,7.744444444,0
3.1.3,Fort Collins East,11/5/2012,17.77777778,-2.333333333,6.827777778,0
3.1.3,Fort Collins East,11/6/2012,17.5,-1.055555556,7.222222222,0
3.1.3,Fort Collins East,11/7/2012,21.66666667,-2.611111111,7.616666667,0
3.1.3,Fort Collins East,11/8/2012,14,-1.611111111,5.244444444,0
3.1.3,Fort Collins East,11/9/2012,14.22222222,-3.166666667,3.627777778,0
3.1.3,Fort Collins East,11/10/2012,4.777777778,-6.944444444,-1.322222222,0.090551181
3.1.3,Fort Collins East,11/11/2012,1.388888889,-10.55555556,-5.444444444,0
3.1.3,Fort Collins East,11/12/2012,4.555555556,-13.27777778,-4.483333333,0
3.1.3,Fort Collins East,11/13/2012,11.44444444,-5.166666667,1.377777778,0
3.1.3,Fort Collins East,11/14/2012,11.66666667,-5.944444444,1.205555556,0
3.1.3,Fort Collins East,11/15/2012,7.666666667,-4.611111111,1.544444444,0
3.1.3,Fort Collins East,11/16/2012,10.66666667,-7.388888889,1.133333333,0
3.1.3,Fort Collins East,11/17/2012,16.11111111,-2.277777778,5.316666667,0
3.1.3,Fort Collins East,11/18/2012,18.66666667,-3.111111111,5.883333333,0
3.1.3,Fort Collins East,11/19/2012,10.77777778,-3.5,2.983333333,0
3.1.3,Fort Collins East,11/20/2012,17.38888889,-5.444444444,4.472222222,0
3.1.3,Fort Collins East,11/21/2012,21.55555556,-3.833333333,7.516666667,0
3.1.3,Fort Collins East,11/22/2012,15.44444444,-1.611111111,8.322222222,0
3.1.3,Fort Collins East,11/23/2012,7.611111111,-10.16666667,-1.994444444,0
3.1.3,Fort Collins East,11/24/2012,16.83333333,-4.833333333,3.961111111,0
3.1.3,Fort Collins East,11/25/2012,11.5,-6.888888889,3,0
3.1.3,Fort Collins East,11/26/2012,0.833333333,-9.555555556,-1.961111111,0
3.1.3,Fort Collins East,11/27/2012,13.44444444,-10.61111111,-1.905555556,0
3.1.3,Fort Collins East,11/28/2012,4.166666667,-5.888888889,-1.766666667,0
3.1.3,Fort Collins East,11/29/2012,16.94444444,-6.222222222,2.972222222,0
3.1.3,Fort Collins East,11/30/2012,15.16666667,-2.555555556,4.444444444,0
3.1.3,Fort Collins East,12/1/2012,15.77777778,-2.444444444,6.355555556,0
3.1.3,Fort Collins East,12/2/2012,15.55555556,-5.611111111,3.361111111,0
3.1.3,Fort Collins East,12/3/2012,14.83333333,-4.722222222,7.183333333,0
3.1.3,Fort Collins East,12/4/2012,10.88888889,-9.333333333,-0.177777778,0
3.1.3,Fort Collins East,12/5/2012,19.05555556,-1.722222222,7.716666667,0
3.1.3,Fort Collins East,12/6/2012,9.944444444,-5.944444444,3.705555556,0
3.1.3,Fort Collins East,12/7/2012,9.722222222,-7.611111111,0.177777778,0
3.1.3,Fort Collins East,12/8/2012,7.833333333,-7.611111111,-0.805555556,0
3.1.3,Fort Collins East,12/9/2012,-2.888888889,-16.16666667,-7.522222222,0
3.1.3,Fort Collins East,12/10/2012,5.555555556,-16.83333333,-5.638888889,0
3.1.3,Fort Collins East,12/11/2012,5.222222222,-12.16666667,-4.194444444,0
3.1.3,Fort Collins East,12/12/2012,16.11111111,-10.33333333,0.977777778,0
3.1.3,Fort Collins East,12/13/2012,8.555555556,-6.222222222,-0.322222222,0
3.1.3,Fort Collins East,12/14/2012,6.388888889,-7.833333333,-1.133333333,0
3.1.3,Fort Collins East,12/15/2012,6.5,-4.5,1.333333333,0
3.1.3,Fort Collins East,12/16/2012,3.611111111,-7.944444444,-1.216666667,0
3.1.3,Fort Collins East,12/17/2012,10.83333333,-10.66666667,1.411111111,0
3.1.3,Fort Collins East,12/18/2012,6.444444444,-4.666666667,0.138888889,0.059055118
3.1.3,Fort Collins East,12/19/2012,-4.111111111,-16,-7.133333333,0.019685039
3.1.3,Fort Collins East,12/20/2012,9.277777778,-17.61111111,-5.833333333,0
3.1.3,Fort Collins East,12/21/2012,11.44444444,-11.44444444,-2.844444444,0
3.1.3,Fort Collins East,12/22/2012,12.88888889,-12,-2.1,0
3.1.3,Fort Collins East,12/23/2012,11.94444444,-12.5,-0.027777778,0
3.1.3,Fort Collins East,12/24/2012,2.277777778,-10.11111111,-4.733333333,0.059055118
3.1.3,Fort Collins East,12/25/2012,-9.444444444,-21.38888889,-13.15555556,0.059055118
3.1.3,Fort Collins East,12/26/2012,-5.444444444,-23.05555556,-13.52222222,0
3.1.3,Fort Collins East,12/27/2012,-4.166666667,-18.11111111,-10.06666667,0.031496063
3.1.3,Fort Collins East,12/28/2012,-0.444444444,-20.44444444,-11.5,0
3.1.3,Fort Collins East,12/29/2012,0.388888889,-21.22222222,-12.64444444,0
3.1.3,Fort Collins East,12/30/2012,3.666666667,-20.05555556,-8.888888889,0
3.1.3,Fort Collins East,12/31/2012,-3,-19.11111111,-9.911111111,0
